Cuv: 7	Label1	Blank	Diff
250	2.2135000229	0.674300015	1.5391999483
252	2.1173000336	0.6363999844	1.4809000492
254	2.0480999947	0.6090999842	1.4391000271
256	1.9835000038	0.5820000172	1.4014999866
258	1.9279999733	0.5584999919	1.3694000244
260	1.9018000364	0.5447000265	1.3569999933
262	1.8828999996	0.5361999869	1.3466999531
264	1.8681000471	0.5271000266	1.3409999609
266	1.8580000401	0.5112000108	1.3467999697
268	1.8617999554	0.5034999847	1.3582999706
270	1.8709000349	0.4954000115	1.3753999472
272	1.8896000385	0.4871000051	1.4025000334
274	1.9038000107	0.4799000025	1.4240000248
276	1.9187999964	0.467599988	1.4512000084
278	1.9237999916	0.4578999877	1.4658999443
280	1.9234000444	0.4435000122	1.4800000191
282	1.9110000134	0.4255000055	1.4854999781
284	1.8976000547	0.4110000134	1.4866000414
286	1.858700037	0.3860000074	1.4725999832
288	1.8272999525	0.3709999919	1.4563000202
290	1.7559000254	0.3441999853	1.4118000269
292	1.6972999573	0.3257000148	1.3715000153
294	1.5990999937	0.2962000072	1.3028000593
296	1.4944000244	0.2617999911	1.2325999737
298	1.4879000187	0.2592000067	1.2287000418
300	1.4306999445	0.2406000048	1.1900999546
302	1.3668999672	0.2154999971	1.1513999701
304	1.3336000443	0.2012999952	1.1323000193
306	1.2980999947	0.1851000041	1.1130000353
308	1.2519999743	0.1606000066	1.0913000107
310	1.2330000401	0.1502999961	1.0827000141
312	1.2190999985	0.1377000064	1.0814000368
314	1.2064000368	0.1325999945	1.0737999678
316	1.1963000298	0.124499999	1.0716999769
318	1.1869000196	0.1168000028	1.0700999498
320	1.1776000261	0.1092000008	1.0684000254
322	1.1678999662	0.1032999977	1.0644999743
324	1.1631000042	0.1001999974	1.0629999638
326	1.1547000408	0.0957999974	1.0588999987
328	1.1452000141	0.0910999998	1.0541000366
330	1.1353000402	0.0873000026	1.0480999947
332	1.122699976	0.0843999982	1.0383000374
334	1.1093000174	0.0825000033	1.0268000364
336	1.076300025	0.0794999972	0.996900022
338	1.0292999744	0.0766000003	0.9527000189
340	0.977699995	0.0744000003	0.9032999873
342	0.9289000034	0.0720999986	0.8568000197
344	0.8902000189	0.0702999979	0.8198000193
346	0.8579000235	0.068400003	0.7894999981
348	0.8320999742	0.0662999973	0.7657999992
350	0.8191999793	0.0645999983	0.7545999885
352	0.815500021	0.0636000037	0.7518000007
354	0.8162999749	0.061900001	0.7544000149
356	0.8252000213	0.0595000014	0.7656000257
358	0.8324000239	0.0588000007	0.7735999823
360	0.8438000083	0.0573999994	0.7864000201
362	0.8536999822	0.0562999994	0.7975000143
364	0.8632000089	0.0555999987	0.8076000214
366	0.8815000057	0.054299999	0.8271999955
368	0.90200001	0.0531000011	0.8488000035
370	0.9277999997	0.0522000007	0.8755999804
372	0.9538999796	0.0520000011	0.9017999768
374	0.9700000286	0.0516999997	0.918200016
376	1.0059000254	0.0516999997	0.9542999864
378	1.0415999889	0.0518999994	0.9897000194
380	1.0618000031	0.0516999997	1.0101000071
382	1.0900000334	0.0522000007	1.037899971
384	1.1197999716	0.0524000004	1.0673999786
386	1.1484999657	0.0472999997	1.1011999846
388	1.1823999882	0.0469999984	1.1354000568
390	1.2062000036	0.0465999991	1.1596000195
392	1.2273000479	0.0463999994	1.1808999777
394	1.2711999416	0.0458999984	1.2252999544
396	1.2924000025	0.0456999987	1.2466000319
398	1.3129999638	0.0454999991	1.2675000429
400	1.3446999788	0.0450000018	1.2996000051
402	1.3582999706	0.0449000001	1.3134000301
404	1.3767999411	0.0449000001	1.3319000006
406	1.3950999975	0.0445999987	1.3504999876
408	1.4055999517	0.0443000011	1.3612999916
410	1.4155999422	0.0441999994	1.3713999987
412	1.4197000265	0.0441999994	1.3754999638
414	1.4198999405	0.0436000004	1.3762999773
416	1.4157999754	0.0438000001	1.371999979
418	1.4049999714	0.0436000004	1.3614000082
420	1.3959000111	0.0432000011	1.352699995
422	1.3849999905	0.0430999994	1.341899991
424	1.3651000261	0.0434000008	1.3216999769
426	1.3453999758	0.0430000015	1.3022999763
428	1.3136999607	0.0430000015	1.2706999779
430	1.2869000435	0.0432000011	1.2436000109
432	1.2542999983	0.0430999994	1.2110999823
434	1.2099000216	0.0428999998	1.1670000553
436	1.168900013	0.0428000018	1.1260999441
438	1.1247999668	0.0427000001	1.0821000338
440	1.0819000006	0.0427000001	1.0391999483
442	1.0376000404	0.0425000004	0.9951000214
444	0.9664000273	0.0423000008	0.9240000248
446	0.9175999761	0.0421999991	0.8754000068
448	0.8694000244	0.0421000011	0.8273000121
450	0.8356999755	0.0421999991	0.7935000062
452	0.7792000175	0.0417999998	0.7373999953
454	0.7293000221	0.0417000018	0.6876000166
456	0.6847000122	0.0417999998	0.6427999735
458	0.6395999789	0.0416000001	0.5978999734
460	0.6114000082	0.0416000001	0.5698000193
462	0.5791000128	0.0412999988	0.537800014
464	0.5518000126	0.0414999984	0.5102999806
466	0.5236999989	0.0414000005	0.4823000133
468	0.4916000068	0.0414999984	0.4499999881
470	0.4740999937	0.0417999998	0.4323000014
472	0.4578999877	0.0417999998	0.4160999954
474	0.4372000098	0.0417000018	0.3955999911
476	0.4264000058	0.0419000015	0.3844999969
478	0.4140000045	0.0417999998	0.3722000122
480	0.40200001	0.0419000015	0.3601000011
482	0.3883000016	0.0417000018	0.3467000127
484	0.3828000128	0.0414999984	0.3413000107
486	0.3792999983	0.0416000001	0.3377000093
488	0.3767000139	0.0416000001	0.3350999951
490	0.3673000038	0.0414000005	0.3258999884
492	0.3623999953	0.0412000008	0.3212000132
494	0.3585999906	0.0412999988	0.3172999918
496	0.3547999859	0.0412999988	0.3134999871
498	0.3521000147	0.0414999984	0.3104999959
500	0.3495999873	0.0416000001	0.3079999983
502	0.3443000019	0.0416000001	0.3027000129
504	0.3415000141	0.0414000005	0.3000999987
506	0.3391000032	0.0414000005	0.2976999879
508	0.337500006	0.0414999984	0.2960000038
510	0.3352999985	0.0414000005	0.293900013
512	0.3312000036	0.0414000005	0.2897999883
514	0.3289999962	0.0414999984	0.287499994
516	0.3273999989	0.0412000008	0.2861999869
518	0.3274999857	0.0410999991	0.2863000035
520	0.3231000006	0.0412999988	0.2818000019
522	0.3201000094	0.0414000005	0.2786999941
524	0.3181000054	0.0412999988	0.2768000066
526	0.3158000112	0.0412999988	0.2745000124
528	0.3138999939	0.0410999991	0.2727999985
530	0.3118000031	0.0412000008	0.2705999911
532	0.3086000085	0.0410999991	0.2675000131
534	0.3072000146	0.0408000015	0.2664000094
536	0.3052999973	0.0410000011	0.2642999887
538	0.3037999868	0.0410000011	0.2628000081
540	0.300999999	0.0410000011	0.2599999905
542	0.2987000048	0.0408000015	0.2578999996
544	0.2969999909	0.0408000015	0.2561999857
546	0.2960000038	0.0406999998	0.2552999854
548	0.2931999862	0.0408999994	0.2522999942
550	0.2921999991	0.0406999998	0.2515000105
552	0.2901000082	0.0408999994	0.2492000014
554	0.2881000042	0.0406000018	0.2475000024
556	0.2865999937	0.0408999994	0.2457000017
558	0.2845000029	0.0410000011	0.2434999943
560	0.2829000056	0.0408000015	0.2421000004
562	0.2809000015	0.0406999998	0.240199998
564	0.2786000073	0.0408000015	0.2379000038
566	0.277399987	0.0408999994	0.2365999967
568	0.2754000127	0.0406000018	0.234799996
570	0.2739000022	0.0406000018	0.2333000004
572	0.2716999948	0.0406999998	0.2310000062
574	0.2703999877	0.0405000001	0.2298000008
576	0.2687000036	0.0403999984	0.2282000035
578	0.2666999996	0.0405000001	0.2261999995
580	0.2653000057	0.0403000005	0.224999994
582	0.2640999854	0.0403000005	0.2238000035
584	0.2628999949	0.0403999984	0.2224999964
586	0.2601000071	0.0403000005	0.2197999954
588	0.2587000132	0.0403000005	0.2184000015
590	0.2576000094	0.0403000005	0.2173999995
592	0.2554999888	0.0401999988	0.2152999938
594	0.2545000017	0.0401999988	0.2143000066
596	0.2522000074	0.0401999988	0.2119999975
598	0.2511999905	0.0401999988	0.2109999955
600	0.2496999949	0.0401999988	0.2094999999
602	0.2485000044	0.0403999984	0.2081999928
604	0.2468000054	0.0401000008	0.2066999972
606	0.2451000065	0.0401999988	0.2048999965
608	0.2440000027	0.0401000008	0.2038999945
610	0.2431000024	0.0399999991	0.2030999959
612	0.2416999936	0.0401999988	0.2014999986
614	0.2398000062	0.0399999991	0.1999000013
616	0.238499999	0.0399999991	0.1985000074
618	0.2372000068	0.0403000005	0.1969999969
620	0.2363000065	0.0401000008	0.1961999983
622	0.2345999926	0.0401000008	0.1944999993
624	0.2346999943	0.0403000005	0.1942999959
626	0.232099995	0.0403000005	0.1917999983
628	0.2307000011	0.0403000005	0.1903000027
630	0.2301000059	0.0405000001	0.1896000057
632	0.2285999954	0.0401999988	0.1884000003
634	0.2272000015	0.0401999988	0.1870000064
636	0.2259999961	0.0403999984	0.1854999959
638	0.2246000022	0.0403000005	0.1843000054
640	0.2238000035	0.0403999984	0.1834000051
642	0.2216999978	0.0403999984	0.1812999994
644	0.2210000008	0.0403000005	0.1808000058
646	0.2195000052	0.0401000008	0.1792999953
648	0.2185000032	0.0403000005	0.1782000065
650	0.2175000012	0.0403000005	0.1772000045
652	0.2161000073	0.0403000005	0.1757999957
654	0.2148000002	0.0401000008	0.1747000068
656	0.2136999965	0.0401000008	0.1736000031
658	0.2140000015	0.0399999991	0.173999995
660	0.2117000073	0.0397999994	0.1719000041
662	0.2100999951	0.0397999994	0.1703000069
664	0.2090000063	0.0397999994	0.1692000031
666	0.208100006	0.0397000015	0.1684000045
668	0.207100004	0.0397000015	0.1674000025
670	0.2055000067	0.0397999994	0.1657000035
672	0.2046000063	0.0397999994	0.1648000032
674	0.2037999928	0.0397999994	0.1640000045
676	0.2025000006	0.0397000015	0.1626999974
678	0.2011999935	0.0399000011	0.1614000052
680	0.2003999949	0.0397999994	0.1606000066
682	0.1993999928	0.0397999994	0.1596000046
684	0.198300004	0.0397000015	0.1586000025
686	0.1976000071	0.0399000011	0.1577000022
688	0.1963	0.0397000015	0.1564999968
690	0.1952999979	0.0395999998	0.1556999981
692	0.1943999976	0.0397000015	0.1545999944
694	0.1932999939	0.0399000011	0.1535000056
696	0.1925999969	0.0399000011	0.152700007
698	0.1917999983	0.0399999991	0.1518000066
700	0.1907999963	0.0397999994	0.1509999931
702	0.1899999976	0.0397999994	0.1501999944
704	0.1889999956	0.0399000011	0.1491000056
706	0.1879999936	0.0399000011	0.1481000036
708	0.1871999949	0.0401999988	0.1469999999
710	0.186499998	0.0403000005	0.1462000012
712	0.185800001	0.0403000005	0.1455000043
714	0.184799999	0.0403999984	0.1445000023
716	0.1840000004	0.0406000018	0.1433999985
718	0.1833000034	0.0406999998	0.1425999999
720	0.1826000065	0.0408000015	0.1418000013
722	0.1818999946	0.0408999994	0.1409000009
724	0.1811999977	0.0412000008	0.1400000006
726	0.180399999	0.0414999984	0.1388999969
728	0.1799000055	0.0417000018	0.1380999982
730	0.1794999987	0.0419999994	0.137500003
732	0.1789000034	0.0423999988	0.136500001
734	0.1784999967	0.0430000015	0.1354999989
736	0.1782000065	0.0436000004	0.1345999986
738	0.1780000031	0.0439000018	0.134100005
740	0.1777999997	0.0445000008	0.1333000064
742	0.1773000062	0.0449000001	0.1324000061
744	0.1768999994	0.0454000011	0.1315000057
746	0.1763000041	0.0456999987	0.1306000054
748	0.175999999	0.0458999984	0.1300999969
750	0.1753000021	0.0463000014	0.1290999949
752	0.1745000035	0.0463000014	0.1281999946
754	0.1738999933	0.0463000014	0.1275999993
756	0.1731999964	0.0461999997	0.1270000041
758	0.1719000041	0.0461000018	0.1257999986
760	0.1712000072	0.0458000004	0.1254999936
762	0.1697999984	0.0456000008	0.1242000014
764	0.1691000015	0.0452000014	0.1238999963
766	0.167899996	0.0449000001	0.1230999976
768	0.166899994	0.0443999991	0.1225000024
770	0.1658000052	0.0441999994	0.1216000021
772	0.1650999933	0.0441999994	0.1208999977
774	0.1642999947	0.0439000018	0.1203999966
776	0.1632999927	0.0439999998	0.1193000004
778	0.1626999974	0.0439000018	0.118900001
780	0.1617999971	0.0439999998	0.1177999973
782	0.1615999937	0.0439999998	0.1176000014
784	0.1608999968	0.0441999994	0.1167000011
786	0.1603000015	0.0441999994	0.1159999967
788	0.1596000046	0.0443000011	0.1152999997
790	0.1589999944	0.0443999991	0.1146000028
792	0.1587000042	0.0445000008	0.1142000034
794	0.1580000073	0.0447999984	0.1132000014
796	0.1576000005	0.0449000001	0.1128000021
798	0.1572999954	0.0452000014	0.1120999977
800	0.1568000019	0.0452999994	0.1115999967

