SPECTRUM - MS
t_orange_091210_01_neg.RAW
ITMS - c ESI Full ms [150.00-1000.00]
Scan #: 3109
RT: 15.41
Data points: 820
Mass	Intensity
150.409546	19.219751
151.486679	130.755722
153.448776	82.698685
154.603897	15.570373
155.496368	132.867676
156.482285	75.958817
157.510834	265.265961
158.661713	34.712673
159.535614	283.444366
160.785645	142.333557
161.501877	540.512573
162.468399	51.212437
163.434845	101.514328
165.332458	1087.835938
166.399002	78.315384
167.465485	237.406204
168.513931	10.549644
169.542923	59.982258
170.370956	6.715179
171.447784	279.622925
172.869812	40.758255
173.527008	165.312363
175.338272	3246.023926
176.403427	126.940071
177.454086	295.829346
178.420105	37.636147
179.461517	293.406158
181.277374	3691.013672
182.389465	114.906021
183.396210	111.762329
184.751083	22.524372
185.467056	147.313568
186.320801	32.072411
187.455658	334.940918
188.467438	37.539078
189.458649	98.142624
190.306549	29.808773
191.353851	228.875702
192.312622	70.395340
193.386444	101.396805
194.495071	53.732262
195.483536	79.818794
196.587219	14.177283
197.368225	99.789085
198.352173	64.355759
199.481842	288.295013
200.353088	29.722507
201.399536	175.099289
202.392120	19.242069
203.486420	62.177235
205.408600	92.631836
206.575134	33.259102
207.447083	75.545090
208.656464	61.447395
209.560364	76.511208
211.427948	145.420654
212.272583	37.702629
213.434448	176.129013
214.519623	27.460335
215.552948	149.514191
217.383926	58.192444
219.435654	91.542061
221.457062	4024.061279
222.460236	481.498260
223.504211	206.823669
225.288010	218.362274
227.278915	327.347656
228.351471	53.206791
229.491241	148.782501
230.521759	23.239424
231.509857	60.910267
233.276062	542.552979
234.309418	55.015884
235.346893	222.250473
236.422852	178.824341
237.448578	159.921417
238.697388	56.692543
239.459488	279.932770
240.440979	48.199120
241.475067	164.660233
243.201599	1544.776733
244.233978	122.269867
245.395691	108.693314
246.796692	33.165794
247.494873	119.167564
249.317688	2980.028076
250.309540	174.555222
251.425507	155.007431
252.450378	19.270185
253.472122	183.809387
255.283020	958.717407
256.355988	114.028885
257.477814	209.144775
258.578583	76.026329
259.506104	121.225220
260.305054	35.380386
261.411804	147.369843
262.799561	46.735275
263.437531	150.831039
264.327881	32.544022
265.503906	244.660767
266.556152	284.727417
267.360229	470.534790
268.545776	82.256004
269.518402	309.566010
270.438416	214.552261
271.471588	175.889877
272.414124	53.949173
273.335297	66.821625
274.718689	52.068501
275.392273	44.503765
276.021088	24.530149
277.425110	243.049301
278.440643	62.298569
279.346985	120.441162
280.408325	26.313000
281.428955	144.868759
282.423767	23.594757
283.455688	135.458908
284.189941	33.098972
285.478180	244.565475
286.536133	77.288956
287.550049	177.660828
289.359222	1949.663330
290.467804	309.834747
291.368225	146.109558
292.550690	52.698467
293.413940	112.280006
294.616577	52.920891
295.373657	175.694168
296.744202	50.516693
297.390015	157.962845
298.457397	54.722488
299.457153	161.636414
300.573364	205.770157
301.333862	291.517548
302.343994	90.285004
303.485168	176.339767
304.834167	219.713013
305.478516	382.167358
306.517578	150.790543
307.433167	165.646942
309.405334	247.399399
310.613983	135.832153
311.262543	1190.177124
312.429749	103.988632
313.457336	201.149689
314.528503	95.064453
315.436584	195.767136
317.238037	2275.048340
318.323242	160.898712
319.403625	119.325912
320.688599	25.985317
321.497009	99.193451
323.207336	556.922546
324.214294	89.863419
325.432007	142.027573
326.811462	73.288002
327.569092	231.737305
329.522278	22713.912109
330.536804	4108.174316
331.511169	1148.508301
332.594910	256.121033
333.426880	275.554626
334.334473	115.066101
335.469360	153.386826
336.418518	60.291878
337.432312	149.515106
338.491333	36.486706
339.495544	142.637665
340.534668	82.151154
341.431274	193.476837
342.564697	101.834854
343.487671	179.389053
344.662292	70.514420
345.464478	172.708694
346.658264	73.066376
347.372986	188.630447
348.252075	79.118454
349.451416	176.842590
351.380798	942.624573
352.519287	242.056839
353.428101	199.198898
354.421753	55.471851
355.330200	168.263641
357.199402	1408.392822
358.280273	310.913177
359.328735	224.902420
360.449890	76.881607
361.325684	182.574554
362.587830	90.236740
363.315552	153.001526
364.415649	89.804420
365.389038	292.611572
366.462097	99.605118
367.389282	198.749420
368.507141	131.234650
369.369446	240.352448
370.936096	161.975586
371.662842	104.624786
372.378357	43.784363
373.189819	273.936493
374.020935	30.271122
375.047119	1860.121460
376.206787	324.206451
377.234802	270.708496
379.026794	1293.672974
380.155334	132.672516
381.382935	227.380508
383.216492	236.534210
385.052490	1657.287842
386.194641	162.624054
387.370483	527.001831
388.422241	102.792763
389.332886	269.770264
391.105896	528.468201
392.258179	101.277214
393.257935	156.016083
394.489502	46.290245
395.307068	198.089401
396.153687	47.849300
397.440125	6587.346680
398.478638	1226.815430
399.464233	417.331909
400.401917	87.509666
401.270203	187.223816
402.229675	112.203514
403.206421	151.469391
404.227600	56.856644
405.278259	144.507416
406.504395	77.019547
407.379089	122.379242
408.443054	25.990398
409.255981	148.993637
410.333801	71.787231
411.331787	356.931763
412.407715	146.235413
413.412598	301.583130
414.410767	167.679489
415.379700	148.824615
416.658813	71.972916
417.442871	84.476715
419.177185	1297.158813
420.347229	306.316437
421.256958	592.347168
422.231873	167.664444
423.301819	150.900818
424.525330	85.907463
425.249451	546.423584
426.310547	131.093628
427.326172	194.324188
428.472900	138.510681
429.300049	196.275818
430.398743	104.431564
431.325256	229.735016
432.590637	107.875519
433.418030	123.790619
434.697815	84.623322
435.351868	98.949806
436.480225	65.964470
437.313538	151.793869
438.371521	40.110970
439.325073	244.705383
440.408264	127.940735
441.224854	651.007996
442.480835	216.024384
443.244385	301.510956
444.122986	105.683578
445.192505	189.357025
446.428589	131.103546
447.058960	715.306274
448.138428	97.245079
449.303345	294.759827
450.565491	110.426140
451.352295	144.653641
452.954468	1129.987549
454.310913	86.916245
455.249451	279.913666
456.100586	62.629219
457.204712	285.673401
459.103638	711.418274
460.180115	154.308685
461.075684	98.733032
462.048950	23.080770
463.216187	171.445007
465.277344	2083.533936
466.354553	570.847046
467.349854	235.632202
468.562988	159.578705
469.394226	151.863556
470.190369	124.038254
471.200073	124.303406
472.120544	32.009983
473.219849	125.714111
474.490540	84.423874
475.322937	77.434853
476.287231	93.318115
477.296509	157.429291
478.355408	45.766411
479.337708	158.236755
480.363159	86.529053
481.371155	215.776596
482.409729	90.244781
483.166870	162.093979
484.379333	50.873306
485.217285	117.958298
486.217407	56.534096
487.221191	322.930908
488.157104	52.631207
489.206238	187.928925
490.158081	54.159451
491.166565	108.298721
492.013977	44.267532
493.118591	441.387054
494.271973	138.079330
495.263794	179.021133
496.213562	115.788773
497.336487	297.243835
498.358459	112.048340
499.273682	272.830597
500.439270	61.323853
501.234436	151.106110
502.184753	49.182465
503.191223	151.672760
504.268250	88.444427
505.251770	251.730820
506.233704	89.373833
507.070496	132.298920
508.153259	109.217812
509.146790	641.544067
510.221313	172.162781
511.076416	289.860840
512.367493	77.786484
513.176331	186.905121
514.832520	758.085022
516.076904	121.003387
517.283997	424.534607
518.346497	132.167709
519.236511	201.687057
520.832397	876.962280
521.902466	196.147034
523.097107	206.670364
524.377502	107.726257
525.307434	217.976944
527.081238	762.965515
528.296448	157.946625
529.331726	184.498657
530.459045	102.151520
531.382996	178.338043
532.565979	165.102600
533.268738	1161.186768
534.337402	355.793335
535.422729	110.318787
536.131042	25.849831
537.077698	196.030777
538.192810	95.519150
539.211243	256.326508
540.403992	159.573746
541.360168	115.719498
542.564636	102.709198
543.348083	117.699776
544.466797	141.534241
545.444641	189.166718
546.411316	69.665413
547.343811	183.917206
548.465881	71.699707
549.203857	177.714981
550.146790	92.555435
551.066589	217.819611
552.342957	60.482498
553.214417	139.737671
554.122192	83.650024
555.072083	256.390900
556.066895	115.413559
557.133972	117.890205
558.056824	47.471039
559.189575	126.084091
560.287354	91.474289
561.191284	286.673950
562.592468	142.850342
563.333923	79.369492
564.281128	58.629658
565.089661	148.669479
566.001709	78.285995
566.749451	114.602821
567.411316	128.350784
568.716858	118.310516
569.389954	74.233101
570.410522	75.133537
571.202576	80.417824
572.312683	138.052109
573.295593	240.656097
574.148621	84.583206
575.057190	204.982498
576.426331	186.838257
577.133423	235.378616
578.050354	93.600845
579.000061	237.832047
580.555603	96.810486
581.261353	103.175476
582.101563	63.997643
582.816101	479.660492
583.715576	90.094604
584.514221	19.181934
585.162048	202.430771
586.281921	86.342323
587.185608	193.720383
588.198120	39.596535
588.893127	492.295471
589.695251	144.326294
591.051025	285.390778
592.271057	129.824219
593.227173	153.057922
594.424316	91.768631
595.136719	484.216522
596.091125	176.938553
597.230164	159.091888
598.547363	131.814362
599.341614	94.145821
600.553406	290.946777
601.245178	616.107544
602.179626	239.923126
603.155029	234.792816
603.926941	2.557380
605.101379	145.434555
606.078979	64.309799
607.159851	295.264221
608.094543	72.250099
609.050903	131.510788
609.939148	79.562683
611.058655	129.524841
612.231628	132.872726
613.534424	109.328484
614.766479	95.946846
615.611877	116.251099
616.635315	139.220810
617.381409	133.689804
618.249573	64.539879
619.103699	173.910950
620.130859	75.701797
621.135437	126.668823
622.418762	115.052612
623.245361	212.024567
624.155701	109.885780
625.087891	176.343079
626.671326	124.023140
627.475159	58.853512
628.283752	63.838531
629.154114	293.917786
630.219360	91.836266
631.294312	151.454605
632.249084	87.706871
633.065918	101.604836
633.725708	21.185722
634.438110	103.035194
635.165283	139.237015
636.176697	76.971001
637.089905	191.838013
638.048218	47.894909
639.085144	123.316788
640.079468	75.675316
641.131104	208.358414
642.342102	113.055580
643.212463	87.325699
644.395081	124.509247
645.224121	196.157715
646.601624	154.917419
647.688049	45.947056
648.709412	86.736877
649.649841	83.026215
650.823059	340.959625
652.010986	23.429892
652.664185	90.306442
653.320496	71.003235
654.271667	72.238777
655.194885	91.749710
656.057007	38.092922
656.933411	339.065247
658.420410	101.466537
659.141724	208.285736
660.127502	99.976479
661.020447	174.187103
662.393860	163.326935
663.151917	372.687225
663.983521	88.634727
664.678711	53.495567
665.709656	146.905426
666.586731	38.513775
667.380127	61.163391
668.411377	132.159897
669.050842	410.402130
670.033997	156.121414
671.088684	161.343842
672.366943	96.900330
673.098572	129.775452
674.046692	53.932335
675.101868	153.055939
676.175354	79.883804
677.188171	107.729736
678.239075	54.110313
679.117371	76.616821
680.487244	98.269302
681.523621	241.157776
682.557739	119.362885
683.518005	147.436264
684.765808	114.812828
685.369141	50.439701
686.148254	51.163719
687.105469	111.001961
688.151123	83.090271
689.246033	63.267403
690.379456	136.737549
691.118835	141.415146
692.284912	89.666367
693.080383	107.646637
693.852722	22.961746
694.575562	98.452736
695.417908	45.201294
696.311279	67.020470
697.031677	83.361160
698.029236	93.225540
698.972107	88.419640
699.685913	76.268044
700.667297	70.610451
701.436096	64.572433
702.658936	101.421249
703.419495	64.411186
704.604248	112.012177
705.350403	58.752197
706.486145	112.736969
707.595764	148.144318
708.569397	70.447739
709.381958	110.303780
710.167419	72.753403
710.985718	180.110764
712.269958	130.452637
713.180725	132.811096
714.208435	77.587326
714.983032	61.859734
716.322876	46.723701
717.226746	117.417259
717.866760	53.002430
718.736938	126.684120
719.862732	73.190697
720.880310	106.832016
721.706726	64.091454
722.836487	102.068741
723.699768	64.068069
724.345032	65.609512
725.030701	139.138977
726.019470	92.050728
727.123474	144.133209
728.219666	59.720497
728.991760	67.737579
729.665222	48.500973
730.802307	288.483398
731.897766	117.939461
733.016541	102.479652
733.859192	19.440258
734.824768	105.116470
735.577148	78.567711
736.317749	40.908302
736.975464	340.610352
738.135803	146.626938
739.200317	94.749527
740.180603	65.892174
741.032166	119.080818
742.157654	68.402962
743.101501	152.139603
744.351257	57.407665
745.376038	64.883698
746.867249	119.583008
748.112244	84.446884
749.255249	204.953369
750.465881	163.371307
751.467468	58.847923
752.491699	92.398117
753.738525	112.992981
754.842102	133.230042
756.102600	50.690723
756.988464	94.421303
758.241638	71.520927
759.176086	127.555038
760.188538	38.621841
760.805542	63.845009
761.625000	43.116405
763.033630	89.608040
764.401855	73.917953
765.034424	156.136719
765.873535	50.496532
766.833130	97.939026
767.965759	59.852234
769.010071	100.858200
770.305603	79.569923
771.004395	134.771317
771.976440	81.182426
773.032288	100.456200
773.845825	37.787560
774.723755	104.085464
775.578308	81.508934
776.895325	208.158386
778.204773	162.560287
779.275757	154.872467
780.389526	132.311646
781.345154	127.333397
782.810669	90.453171
783.959290	61.860783
784.882507	51.036526
786.207336	101.987068
787.150635	78.532532
788.166565	26.989086
789.147766	87.039680
790.115540	53.191776
791.129150	93.742798
792.361084	105.827759
793.167236	112.540382
794.107727	44.234085
795.116272	122.279633
796.133850	45.617901
797.233704	64.043060
798.188171	44.471813
798.957642	220.351257
799.884827	83.503082
800.689514	100.707390
801.724243	96.501480
802.576965	68.931190
803.179199	39.101723
804.224792	24.126675
805.080261	220.729126
805.995361	69.986282
807.038757	109.477539
808.149658	67.431282
809.111511	73.473610
810.534241	138.656586
811.334534	82.197701
812.690796	57.228024
813.532715	29.704521
814.607483	60.215660
815.434082	72.297218
816.394226	59.073868
817.149780	105.228355
818.103699	118.385468
819.184326	86.063538
819.961731	14.706682
820.848633	111.118103
821.847412	39.092625
823.053833	88.958572
824.334351	61.163956
825.292542	55.976208
826.676208	83.367264
827.484558	48.612049
828.567322	50.166451
829.496094	42.458096
830.481812	39.839611
831.153442	51.166531
832.037415	40.819080
832.988831	136.852982
833.884705	36.047195
834.543884	74.063805
835.463135	59.266983
836.402344	37.969528
837.104309	67.233917
838.219299	66.084358
839.225281	47.973160
840.215637	63.561012
841.099365	66.871063
842.135742	96.482758
843.144043	73.095764
844.604187	79.016296
845.632507	149.110199
846.887878	91.686989
847.814392	61.411354
848.947266	79.301331
850.173035	67.521576
850.923828	47.617786
851.810730	112.189514
852.696289	83.809235
853.363220	35.434631
854.621338	71.287842
855.708313	74.565254
856.624084	24.179119
857.624756	86.440887
858.743835	40.064369
859.523254	62.827541
860.596375	106.772636
861.895203	92.769264
862.856445	53.000183
863.979492	76.357071
865.029236	65.382217
866.090759	50.552017
866.901917	161.660934
867.839417	68.435143
868.871765	95.775856
869.597107	14.670826
870.651672	42.778057
871.582214	66.451500
872.847595	151.681686
873.943298	76.328087
875.141907	48.953041
876.192810	23.726595
877.229004	56.775364
878.448975	33.026047
879.254700	61.506149
880.392090	48.116798
882.684326	72.460022
883.619873	18.738924
885.080566	86.944138
886.171570	71.926170
887.112732	49.621956
888.067810	56.544437
889.000793	46.886696
890.165771	64.196304
891.103821	105.329834
891.929871	59.893150
892.749512	28.951389
894.483337	113.609299
895.428650	47.709106
896.167908	35.535683
897.019226	51.054470
898.280701	41.902351
899.247620	48.909409
899.913391	6.444084
900.762756	45.454472
902.240173	34.213959
903.291077	57.307190
904.309265	32.809090
905.227234	39.938194
906.474121	57.190681
907.193176	33.633152
907.883545	79.186859
908.640869	36.139648
909.807556	29.307085
910.918274	45.674957
911.858337	33.110168
912.990662	48.708973
913.683594	28.247200
914.521057	44.892658
915.324890	43.652977
915.959534	19.860081
917.188660	28.569374
918.170898	45.743320
919.073669	67.528358
920.274475	37.934250
921.031921	38.261520
921.974365	38.658329
922.926758	62.295567
923.847107	38.038433
924.632874	29.497963
926.063232	49.713974
927.245178	58.892914
928.348633	71.141541
928.970703	63.691818
929.719238	57.208790
930.825134	43.680416
932.162781	43.886787
933.242615	28.873999
934.692078	115.266083
935.897522	47.157066
936.886658	56.281662
937.943909	31.456150
938.960999	77.539024
940.153625	42.712490
940.993347	99.540230
941.806885	41.978104
943.067078	72.064476
943.773132	12.639804
944.796448	37.017990
946.382080	53.278412
947.151062	83.331680
947.791687	5.072148
948.945313	75.990219
950.029297	39.112289
951.360046	37.667877
952.237000	65.627785
953.039490	103.579346
953.914856	70.401917
954.995117	64.165977
957.147461	72.574142
958.309265	19.843174
959.283020	58.562286
960.494141	81.400467
961.363342	27.231602
962.313782	40.403915
963.185303	57.463360
963.999268	10.300150
964.800781	54.862297
966.007507	36.884899
967.087708	35.524326
967.858093	42.329823
968.877991	48.328964
969.922058	26.902206
970.805481	77.438309
971.409912	20.064131
972.740540	62.606544
973.715515	36.281101
974.936707	93.064079
975.994202	84.698456
977.129944	27.882887
978.676941	79.709686
979.841309	63.247906
980.941345	85.833641
981.896484	78.760788
982.961182	73.411743
984.003235	52.708344
985.029297	42.477551
986.114258	73.759056
987.099548	40.858295
988.508606	88.227280
989.547424	50.514923
990.364441	37.655056
991.409180	13.713594
992.176758	56.348396
993.186707	33.509342
994.580078	63.743568
995.258057	26.120415
996.356689	92.413025
997.334534	63.989311
998.315002	64.343994
998.999817	14.261614
999.979553	6.536907
